…
# Problem 1

The packages required for this homework were

``` r
library(p8105.datasets)
data("ny_noaa") 

ny_noaa |>
  group_by(id) |>
  arrange(date) |>
  summarize(n_obs = n())
```

    ## # A tibble: 747 × 2
    ##    id          n_obs
    ##    <chr>       <int>
    ##  1 US1NYAB0001  1157
    ##  2 US1NYAB0006   852
    ##  3 US1NYAB0010   822
    ##  4 US1NYAB0016   214
    ##  5 US1NYAB0017   459
    ##  6 US1NYAB0021   365
    ##  7 US1NYAB0022   273
    ##  8 US1NYAB0023   365
    ##  9 US1NYAB0025   215
    ## 10 US1NYAL0002   549
    ## # ℹ 737 more rows
…
